{
    "$schema": "http://json-schema.org/draft-04/schema#",
    "type": "object",
    "properties": {
        "mapping": {
            "description": "Mapping type. Expected: csv",
            "type": "string",
            "enum": [ "csv" ],
        	"minLength": 1
        },
        "uri": {
        	"description": "Datasource URI",
        	"type": "string",
        	"minLength": 1
        },
        "delimiter": {
        	"description": "JSON property used as primary key",
        	"type": "string",
        	"enum": [ ",", ";", "\t" ]
        },
        "key": {
        	"description": "JSON property used as primary key",
        	"type": "string",
        	"minLength": 1
        },
        "table": {
        	"description": "Main table renaming",
        	"type": "string"
        } 
    },
    "required": ["mapping", "uri", "delimiter", "key"]
}
