{
    "$schema": "http://json-schema.org/draft-04/schema#",
    "type": "object",
    "properties": {
        "mapping": {
            "description": "Mapping type. Expected: database",
            "type": "string",
            "enum": [ "database" ],
        	"minLength": 1
        },
        "dbType": {
        	"description": "Database type",
        	"type": "string",
        	"enum": [ "PostgreSQL", "SQLite", "MySQL" ]
        },
        "host": {
        	"description": "Host name",
        	"type": "string"
        },
        "user": {
        	"description": "DB user",
        	"type": "string",
        	"minLength": 1
        },
        "pass": {
        	"description": "DB pass",
        	"type": "string",
        	"minLength": 1
        },
        "database": {
        	"description": "Database name",
        	"type": "string",
        	"minLength": 1
        }
    },
    "required": ["mapping", "dbType", "host", "database"]
}
