{
    "$schema": "http://json-schema.org/draft-04/schema#",
    "type": "object",
    "properties": {
        "mapping": {
            "description": "Mapping type. Expected: json_schema",
            "type": "string",
            "enum": [ "json_schema" ],
        	"minLength": 1
        },
        "schema": {
        	"description": "Object containing an array of tables",
        	"type": "object",
        	"properties": {
        		"tables": {
        			"description": "Array of table objects",
        			"type": "array",
        			"items": {
        				"type": "object",
        				"properties": {
        					"key": {
        						"description": "Primary key of the table",
        						"type": "string",
        						"minLength": 1
        					},
        					"name": {
        						"description": "Name of the table",
        						"type": "string",
        						"minLength": 1
        					}
        				},
        				"required": ["key", "name"]
        			},
        			"minItems": 1
        		}
        	},
        	"required": ["tables"]
        } 
    },
    "required": ["mapping", "schema"]
}
